﻿[
  {
    "outputFile": "Estilos/App/App.css",
    "inputFile": "Estilos/App/App.scss"
  },
  {
    "outputFile": "js/App/Views/mantenedorUsuario.es5.js",
    "inputFile": "js/App/Views/mantenedorUsuario.js"
  }
]